
                      la ultima pelicula de la era de hielo que me gusto, No es por fanboy, pero se me hace entretenida, pero con algunos huecos argumentales, mi voto 5.4 de 10 (54%)
        
            