
                      Mete en una batidora "Yo el Halcon" y "rocky" dale caña y te sale acero puro. Muy entretenida, me gusto bastante, sabes lo que vas a ver, pero no decepciona.
        
            