
                      Muy lenta para mi gusto, antes de verla pensaba que me iba a encantar, pero todo lo contrario, lenta y aburrida, lo mejor los ultimos 20 minutos, pero lo de mas....
        
            