
                      la peli es un peliculon... pero se hace pesada y un poco larga, al final de la pelo se puede decir que al director se le ha ido de las manos... es mucho mas lenta que gravity
        
            