
                      Me gusto pero esperaba algo mas de acción...muy fantástica.....tal vez demasiado....pero bien...lo pase muy bien...la verdad que Marvel esta explotando la concesión
        
            