
                      me parece muy espetacular e interesante nunka lo he visto pero creo que es emocionante             f  f                                                                                                 g                                                                                                     g
        
            