
                      Es una peli 100% america. Pero merece la pena. Estilo salvar al soldado ryan. Lo peor, q el enemigo sean alienugenas.  Merece la pena verla en el cine por sus efectos
        
            