
                      Muy entretenida, los efectos speciales, sonido muy bien.               El guion no es lo mas sobresaliente, pero tampoco sta mal.                       El general te lo recomiendo
        
            