
                      buena, muy buena esta pelicual al igual que la primera y me gustan los personajes que salen , todo me gusta es increible, impresaionante      ,   magnifica!!!!
        
            