
                      Muy buena trama.  Excelentes efectos.  Muy buen libreto.  Buenos actores. Sin embargo, no es "obra maestra".  Necesitó una base, un por qué, para la trama.  Lo demás es excelente.
        
            