
                      No me a fallado, acción desde el primer segundo, intriga,sorpresa, drama,momentos de humor y un final espléndido,gracias por tenerme en la butaca durante dos horas en tensión,👏👏👏👏👏👏👏👏👏👏👏👏👏👏😉👍.
        
            