
                      Entretenida, basada en hechos reales y lo que algunos os gobiernos hacían por los años 70-80 para sus intereses , buen reparto y Tom de 10.... buena película y entretenida 👍🏻
        
            