
                      ''INFUMABLE''

........................................................................................................................................................................

Lo único que destaco de la película, pero siendo lo único es la fotografía.
        
            