
                      La peor película!! No me lo puedo creer... Una película sin sentido. Miedo? Da mas miedo mi grano en el culo que esta peli!! Con perdón.... Pero me ha decepcionada por completo!!!
        
            