
                      Por q no me dejan ver la película, la película esta buena por q yo me la e visto antes pero esta aplicación o lo q sea este sitio, no me la deja ver por q????
        
            