
                      La peli es malisima. no tiene muxo argumento y no tiene nada de accion  se pasa toda la peli el solo de un lado a otro sin ablar apenas con nadie.î‡ Un tostonî‡
        
            