
                      La película no me gusto, no le encuentro el sentido a esta saga de alvin y ardillas, no creo que esten bien hechas, yo creo que las hacen para ganar dinero y ya está. 3/10
        
            