
                      Hambre...hambre es lo que tenia cuando acabe el cubo de playa de palomitas!! Qe mal lo pase hasta que me quede dormida...jaja no mola! lenta...larga...pugff!!
        
            