
                      Lenta y 
previsible , los personajes trabajan bien en un papel sin aspiraciones Y con poco guión 
                                                            .
        
            