
                      No le pillo el Juego muy lenta y Un drama que será interesante. Pero no es mi estilo... Poner 30 minutos y cambio... Pero sobre Gustos no hay nada escrito. Disfrutar del día...,
        
            