
                      predecible, nada nuevo, lo mejor la musica y la mascara,,, lo ke da mas miedo son los creditos,,,
apta para parejitas ke kieran rozarse ,, xke otra cosa no
        
            