
                      Normalita, mas bien Sosa. Esperaba mucho mas. La actuación de T.Lee muy muy floja. Le
Doy un 6.5
No la
 recomendó al no ser que vaya con los niños, a ello quizás le guste algo.
        
            