
                      Solo ver a bardem se me nubla la vista, por ser comedido, ni el resto de actores lo mejoran. No se los caracteres que van, espero que con esto haya superado los 100
        
            