
                      Está pelicula es una pérdida de tiempo absurda ........................................................., , , , ,.,.,.,.,.,.,.,.,.,.,.,.,.,.,.,.,.,.,.,.,.,.,.,.,.,.,.,.,.,.,.,
        
            