
                      Pesima, peor q las anteriores, si eso es posible, y todavia queda la siguiente q se supone q es la lenta, asi q ha dormir un rato en el cine, todo sea por la parienta 😜
        
            