
                      Por dios ya li ayer y es MALISIMA no lo aconsejo verla en el cine...no tiene ni chicha ni limoná encima que es lenta lenta lenta lenta...........me esperaba quizás otra cosa.
        
            