
                      Petardo. Prefiero pagar x ver bailar al taquillero. Te esperas todo de la peli, se carga a 100.000 tíos . Pero si esta viejo y gordo....! Vamos una mierder
        
            