
                      Pesima
Mala, quiere enseñar algo de la vida, pero es insulsa, aburrida... Lo unico a rescatar la fotografia y la musica... El resto, ni pa que perder pasta... Asco
        
            