
                      Me gusta x que apesar de ser una parte de la saga. No deja de enganchar, muy entretenida. Buenos efectos speciales y trama interesante.                                         Te la recomiendo bastante
        
            