
                      Como siempre justin timberlake hace un gran papel como protagonista y la pelicula en si es buena ni que tiene algun momento cojo para asi decirlo...                                              El problema de esta pelicula es que no es de las que verias dos o tres veces seguidas ya que el final ya te lo saves...                                           Sus buenos puntos son que tiene momentos asi de tension y de emocios.                                           Creo que vale la pena verla porque te hace pensar y te entretienes un buen rato y despues no quieres que la pelicula termine.                             Atentamente:                                       Biel Ollé Castillo
        
            