
                      La mejor de todas a excepcion de las de Reeve, que son un clásico. Los efectos especiales, lo mejor del 2013, seguro.

Mi escena preferida: La despedida de Kevin Costner... no digo más ;)
        
            