
                      eS  UN   PELICULA  MUY  BUENA  ,  TENIENDO  EN  CUENTA  LAS  FAMILIAS  NUMEROSAS  , QUE  ANTES  SE  HACIAN  NO  COMO  AHORA  QUE  SE  SUELE  PLANIFICAR  MUCHO  MAS .  yA  CASI  NADIE  PASA  DE  2  O   TRES    HIJOS  .  mUY  SIMPATICA  LA  PELICULA .
        
            