
                      recien veo el trailer! me quede impactada!:'(.... eso puede suceder y esta sucediendo en muchos lugares del mundo ha de ser muy feo estar en esa situcion :(
        
            