
                      48 años tengo y me lo he pasado como un crio.  La momia se sale durante toda la peli.  Recomendable 100%. A mi me ha gustado más que la primera.  No me importaría verla de nuevo.
        
            