
                      No seria una buena critica , ya que soy gamer de WarCraft desde que se creo el juego y  no seria justo..
Lo unico que me importa  es , que la estrenen ( ya ) en la comunidad donde resido..
        
            