
                      5 estrellas ¿por qué?. El guión es beno.  Película que no necesita más de lo que tiene por que sólo los diálogos y monólogos hacen que merezca la pena verla.
        
            