
                      Todo un peliculon!! 
Un actor al que no conocía demasiado y me encanta en este papel de tio solitario, recomendada 100x100 si de verdad te gusta el cine claro!
        
            