
                      Muy buena, no es la tipica de amor o de coleguitas. No esque tenga una historia profunda, pero no esta mal.  

Pros: sale Ciara :p

Contras: no sale en tetas xDD
        
            