
                      Excelente. Una peli total/ diferente. Ahora entiendo x que todos dicen d no mirar el trailer, t desvela mucho de la trama. Muy buen guion una gran trama.                                       El reparto genial, una historia que no t imaginas y un final k no esperas.        Mirala y si es con tu pareja mejor que mejor
        
            