
                      Mas de lo mismo. Ay que me pilla 'El Innombrable'! Dice el Potter. Uish! Por poco! Pero ya estamos más cerca de deshacernos de él! Dice El Innombrable. Y así van siete.
        
            