
                      ASKO DE PELICULA COMO SIEMPRE LOS PSICOSOCIALES ANEGRANDO TODO MIERDAS DE SUCIOS SIONISTAS. .......................................................................................................................................................................................................................................................................................................................................................................................................................................................................................................................................................................................................................................................................................................................................................................................................................................................................................................................................................................................................................................................................................................................................................................................................................................................................................................................................................................................
        
            