
                      La peor de la saga Bond.
Poca acción, falta de trama, muy lenta comparada con el resto de la saga. 
Los primeros 30 minutos muy buenos, pero el resto ... Mejor no verlo.
        
            