
                      Intente verla hoy en la sexta y es mala hasta decir basta
Mejor haz algo de provecho 
                              Intente verla hoy en la sexta y es mala hasta decir basta
Mejor haz algo de provecho
        
            