
                      La peor de las cuatro, no tiene argumento ninguno y tiene cuatro sustos que se esperan....
Creo que la han dejado para la 5 pero a mi ya no me van a ver el pelo mas...
        
            