
                      No es salvaje, ni graciosa, es una peli cursi donde hablan "mal".. El doblaje no me ha gustado.  El oso si que tiene su gracia.  Me la esperaba mala, pero no tanto..
        
            