
                      No encuentro donde darle Play, para poderla ver.
NO DEBERÍA DE HACER UN COMENTARIO TAN LARGO PARA QUE ME DIGAN, DONDE ESTA EL PALY. ................................................................................................
        
            