
                      Esta película es un plagio de la película " El Rey Leo" Tezuka , es muy "surnoté" (en francès), qué película de mierda !!!!!!!!!!!!!!!!!!!!!!!!!!!!!!!!!!!!
        
            