
                      muy mala,apenas un par de risas en toda la pelicula. 

no merece la pena, creo que pierde toda la expontaneidad q tienen el resto fe pelis (borat, alig...)
        
            