
                      La pelicula es muy mala... se hace larga... final sin sentido... ¿Que comen los leones? Si comen otros animales se estinguen... T.T El hijo que se vá, como se supone que se reproduce?
        
            