
                      la gente se confunde mucho con esta película... se piensan que es el cuento del mago de oz y no! es el principio de la historia! es el por qué se llamó Oz!
        
            