
                      En serio que no os engañen. Un tema muy 1990, Hitlet, Judios y la miseria de la época. Pelicula lenta y con falta de argumento, espacios muertos y aburrimiento.
        
            