
                      Lo diré de manera concisa. PREDECIBLE.  a los 5 min de película ya sabes que va a pasar. Puedes pasar un buen rato un domingo tarde en casa, pero no para el cine.
        
            