
                      Nada!, después de la 1 y la 2 de pena el resto y esta con más inri que compara a Julián López con Gabino Diego, de juzgado de guardia. 
Un par de puntos y punto.
        
            