
                      muy buen documental aunque se podía haber hecho en 2D ya que poco tiene de 3D. sólo lo es el concierto en el O2 Arena y poco más. no se le puede considerar buena en 3D
        
            