
                      No mantiene la línea de lo que realmente todos conocemos como "Rec" pero merece la pena al menos verla ... Esto ahora más que nunca es ... A lo walking dead ...
        
            