
                      Le doy un 1,5 porque hacer una película tiene su mérito y los actores no están mal. Pero por lo general mas de lo mismo, te intentan vender algo que luego no es.
        
            