
                      Yo soy de Bilbao y he veraneado toooda la vida en Almería y no me veo refelejado ni a mis amig@s pero la peli para pasar el rato guay la mejor Carme Machi!!!
        
            