
                      Estare toda la vida enamorada d esta saga!!!!! La vere una y otra vez!!! Espectacular!!!!! No creo q exista otra saga q se le aproxime ni a la zuela d los zapatos!!! Harry potter for ever!!!!
        
            