
                      SUBLIME!!! La mejor pelicula de superheroes en la historia del cine, de la mano de Joss Whedon y Zack Snyder. Un antes y un después a partir de "La Liga de la Justicia"!!!!
        
            