
                      La mejor de todas, no es mi favorita, esa seria el pricionero de azkaban, pero esta es inolvidable, no es el fin de una saga, es el comienzo de una Leyenda! A+
        
            