
                      Me convencio bastante. Muy completa. Los efectos especiales excelentes.                                     Las actuaciones de los protagonistas  estuvieron muy completas, es entretenidad de principio a fin.           Debes olvidarte de la version original y disfrutar de esta
        
            