
                      los  vengadores  es  una  pelicula  muy  entretenida llena  de  accion te  vas  a  encariñar con  los  personajes  y  sobre  todo  con  iron man con una  trama  solida
        
            