
                      La mejor película de Tarantino sin lugar a dudas con un reparto de lujo para una película de lujo. 
Contra más veces se ve, más te gusta. La bso es de 11 sobre 10.
        
            