
                      Iba con pocas expectativas y la película me encantó. 100% recomendada! Creo que la pintan como una comedia y tampoco es eso. Lo único malo es el nombre! Mirenla!!!
        
            