
                      Sensacional, bien contada,  escenas escenas... llenan de  suspenso , actores que impresionan  en su actuación  ...tan corta edad... me hubiese gustado verla en en cine
        
            