
                      Acción de principio a fin, el mejor cine español de los últimos años....Merece la pena, buen guión, muy al estilo americano....los actores inconmensurables.....
        
            