
                      ¿Cómo ? 2,8 / 5 para esta pequeña maravilla francesa ?? Pero esta película es una verdadera joya! Una hermosa animación y música extraordinaria ! es realmente para ver !
        
            