
                      UN PELICULA DE ANTAÑO...OBVIO SOLO QUE ROBERT REDFOR ERA  UN GRAN ACTOS Y LO SIGUE SIENDO..UNA DE LA S PELICULAS  MAS  HUMANAS DE LA VIDA ..SALUDOS Y OJALA Y LA VEAN..SI NO LO HAN HECHO...VA??
        
            