
                      Los Vengadores: Una autentica orgía de efectos, acción, hostias, explosiones  y todo tipo de... de... Dios... Vaya pasada... Imprescindible. La mejor de Marvel hasta la fecha. Un 9.
        
            