
                      Cambió mi vida cuando la vi en la tele a los 12 años y entonces supe que de mayor quería ser cineasta, ese siempre ha sido mi sueño, ilusión y meta en la vida.
        
            