
                      HOLA! LO QUE EL VIENTO SE LLEVÓ (GONE WITH THE WIND), data de 1939, y en algún sitio he leído que se estrenó en el 17 de Enero de 1940, pero NO en 1950...¿Es cierto?
        
            