
                      excelente !!!! no me canso de mirarla , fuera de lo comun , Bad bombon como siempre .. hace pensar si es posible en un futuro cercano este tipo de medicacion
        
            