
                      Me encanto!!!! Yo estube entretenida toda la peli!!! No es una pelicula muy a lo grande, pero esta muy entretenida y no t aburres ni un momento!!! Es un poco rara pero tiene su encanto!!!
        
            