
                      Muy buena la pelicula,la banda sonora 10/10 
La intensidad de la pelicula 10/10
En esta pelicula explican toda la historia de superman,es como si fuese esta pelicula la 1º
        
            