
                      Genial!!!!! Súper entretenida, una historia de amor k te hace reír, llorar, entretenerte...                                   Mario casas hace un papel genial!!! Me leí el libro i es una reproducción fantástica. Se la recomiendo a tdo el mundo.
        
            