
                      Esto es cine señores. Tras ver una vez más esta película (no me canso de ello) nada me queda por decir de lo ya dicho, impresionante, brutal, magnífica, espectáculo, redonda,........
        
            