
                      sin palabras... la verdad todavia no la pude ver... muero x verla :( soy directioner boy y no tengo verguenza en decirloo .. AGUANTE 1D LOCOO... ONE DIRECTION X SIEMPREEE !! :D
        
            