
                      Bueniiisima !!!! La escena final es una muestra una vez mas de que Tom Hank es un pedazo de actor de los pies a la cabeza. Se merece su tercer oscar sin duda
        
            