
                      No ha salido ni la premiare de la película, sin embargo ya tiene 26 criticas...........................................................................................................
        
            