
                      Maravillosa!! me encantaria veerlaaaaaaaaaaaaaaa es una de las mejores peliculas que ha hecho este director encima interppretada por mario casaaa!!!!!!!!!!!!!!!!!!!!!!!!!!!!!!!!!!!
        
            