
                      Me parece un peliculón. Es una de las mejores películas que se hayan podido hacer. Creo que ya no las hacen asi. Tiene de todo: aventuras, amor, engaños, magia... Un 10!!!
        
            