
                      esta  pelicula  es  una  de  las  mejores  que  he  visto  y  el  mejor  villano  de  comics  que  he  visto  en  el  cine   con  una  trama  muy  solida    sin  duda  alguna  una  de  las  mejores  peliculas  que  he  visto
        
            