
                      La mejor pelicula de risa en mucho tiempo............. risa y mas risa ( dejemos la politica a un lao "ostia "), la recomiendo a todo el mundo, jiijijijijijijijjijijjjji.
        
            