
                      La película es buena si pero demasiado visto creo yo... Un rompecorazones blablabla... Sin animo de ofender, es todo el rato igual i repetitiva (lo siento), la recomiendo, eso si, porque su inicio es divertido y curioso.                             Biel Ollé
        
            