
                      Hay que verla porque es ‘Men in Black’ y porque Will Smith es un genio. No es una joya del cine pero se pasa un rato divertido, no es la mejor de la saga; eso seguro.
        
            