
                      NIÑOS GRANDES. Una buena pelicula, aunk esperaba algo mas. Un buen  reparto. Pero creo k carece de un mejor humor.                             A mi parecer se podia hber xprimido mejor, la vi con mi hija y mujer. A ellas les gusto y es lo important
        
            