
                      es  una pelicula entretenida y  una  trama  solida  llena de  accion  pero  no  es  de  mis  favoritas y   el  personaje  deadpool tampoco  es  de  mis  favoritos  y  no  aburre recomendada
        
            