
                      Me esperaba algo más! Hay mucho marketing de por medio y llegas a ver la pelicula y bueno.. Esta bien pero le falta algo.. Nose..! Me esperaba mas la verdad.
        
            