
                      La vendieron como una historia de terror, y en realidad es como cualquiera de las pelis nórdicas de un fin de semana en Antena 3. Se queda con 2,5/5 estrellas.
        
            